[
    {
        "地址": "300台灣新竹市東區龍山東路1號",
        "name": "昇安診所 小兒耳鼻喉 耳鼻喉專科",
        "latitude": "24.78808462010728",
        "longitude": "121.0103851701073"
    },
    {
        "地址": "302台灣新竹縣竹北市嘉豐南路一段30號1樓",
        "name": "立安親子診所",
        "latitude": "121.0332721701073",
        "longitude": "24.81041857010728"
    },
    {
        "地址": "30072台灣新竹市東區慈濟路三號",
        "name": "小森林兒科診所",
        "latitude": "121.0117088701073",
        "longitude": "24.78751837010727"
    },
    {
        "地址": "302台灣新竹縣竹北市福興東路二段140號",
        "name": "艾兒診所",
        "latitude": "121.0270851201072",
        "longitude": "24.81314522010727"
    }
]