[
    {
        "name":"馬偕紀念醫院新竹院區",
        "type" : "flex",
          "altText": "no",
          "contents": {
            "type": "bubble",
            "hero": {
              "type": "image",
              "url": "https://i.imgur.com/mHJd1wW.png",
              "size": "full",
              "aspectRatio": "20:13",
              "aspectMode": "cover",
              "action": {
                "type": "uri",
                "uri": "http://linecorp.com/"
              }
            },
            "body": {
              "type": "box",
              "layout": "vertical",
              "contents": [
                {
                  "type": "text",
                  "text": "Hsinchu Mackay Memorial Hospital",
                  "weight": "bold",
                  "size": "xl"
                },
                {
                  "type": "box",
                  "layout": "baseline",
                  "margin": "md",
                  "contents": [
                    {
                      "type": "icon",
                      "size": "sm",
                      "url": "https://scdn.line-apps.com/n/channel_devcenter/img/fx/review_gold_star_28.png"
                    },
                    {
                      "type": "icon",
                      "size": "sm",
                      "url": "https://scdn.line-apps.com/n/channel_devcenter/img/fx/review_gold_star_28.png"
                    },
                    {
                      "type": "icon",
                      "size": "sm",
                      "url": "https://scdn.line-apps.com/n/channel_devcenter/img/fx/review_gold_star_28.png"
                    },
                    {
                      "type": "icon",
                      "size": "sm",
                      "url": "https://scdn.line-apps.com/n/channel_devcenter/img/fx/review_gray_star_28.png"
                    },
                    {
                      "type": "icon",
                      "size": "sm",
                      "url": "https://scdn.line-apps.com/n/channel_devcenter/img/fx/review_gray_star_28.png"
                    },
                    {
                      "type": "text",
                      "text": "3.1",
                      "size": "sm",
                      "color": "#999999",
                      "margin": "md",
                      "flex": 0
                    }
                  ]
                },
                {
                  "type": "box",
                  "layout": "vertical",
                  "margin": "lg",
                  "spacing": "sm",
                  "contents": [
                    {
                      "type": "box",
                      "layout": "baseline",
                      "spacing": "sm",
                      "contents": [
                        {
                          "type": "text",
                          "text": "Place",
                          "color": "#aaaaaa",
                          "size": "sm",
                          "flex": 1
                        },
                        {
                          "type": "text",
                          "text": "新竹市東區光復路二段690號",
                          "wrap": true,
                          "color": "#666666",
                          "size": "sm",
                          "flex": 5
                        }
                      ]
                    },
                    {
                      "type": "box",
                      "layout": "baseline",
                      "spacing": "sm",
                      "contents": [
                        {
                          "type": "text",
                          "text": "Time",
                          "color": "#aaaaaa",
                          "size": "sm",
                          "flex": 1
                        },
                        {
                          "type": "text",
                          "text": "24hr",
                          "wrap": true,
                          "color": "#666666",
                          "size": "sm",
                          "flex": 5
                        }
                      ]
                    }
                  ]
                }
              ]
            },
            "footer": {
              "type": "box",
              "layout": "vertical",
              "spacing": "sm",
              "contents": [
                {
                  "type": "button",
                  "style": "link",
                  "height": "sm",
                  "action": {
                    "type": "message",
                    "label": "Contact Number",
                    "text": "03-688 9595"
                  }
                },
                {
                  "type": "button",
                  "style": "link",
                  "height": "sm",
                  "action": {
                    "type": "uri",
                    "label": "Website",
                    "uri": "http://www.hc.mmh.org.tw/webhc/index.html#"
                  }
                },
                {
                  "type": "button",
                  "action": {
                    "type": "message",
                    "label": "Operations",
                    "text": "1.Appendectomy\n2.Gastrectomy\n3.Vagotomy\n4.Circumcision"
                  }
                },
                {
                  "type": "button",
                  "action": {
                    "type": "message",
                    "label": "Available Wards",
                    "text": "45 Available Wards"
                  }
                },
                {
                  "type": "spacer",
                  "size": "sm"
                }
              ],
              "flex": 0
            }
          }
    },
    {
        "name":"新竹國泰綜合醫院",
        "type" : "flex",
          "altText": "no",
          "contents": {
            "type": "bubble",
            "hero": {
              "type": "image",
              "url": "https://i.imgur.com/N2s5wE7.png",
              "size": "full",
              "aspectRatio": "20:13",
              "aspectMode": "cover",
              "action": {
                "type": "uri",
                "uri": "http://linecorp.com/"
              }
            },
            "body": {
              "type": "box",
              "layout": "vertical",
              "contents": [
                {
                  "type": "text",
                  "text": "Hsinchu Cathay General Hospital",
                  "weight": "bold",
                  "size": "xl"
                },
                {
                  "type": "box",
                  "layout": "baseline",
                  "margin": "md",
                  "contents": [
                    {
                      "type": "icon",
                      "size": "sm",
                      "url": "https://scdn.line-apps.com/n/channel_devcenter/img/fx/review_gold_star_28.png"
                    },
                    {
                      "type": "icon",
                      "size": "sm",
                      "url": "https://scdn.line-apps.com/n/channel_devcenter/img/fx/review_gold_star_28.png"
                    },
                    {
                      "type": "icon",
                      "size": "sm",
                      "url": "https://scdn.line-apps.com/n/channel_devcenter/img/fx/review_gold_star_28.png"
                    },
                    {
                      "type": "icon",
                      "size": "sm",
                      "url": "https://scdn.line-apps.com/n/channel_devcenter/img/fx/review_gray_star_28.png"
                    },
                    {
                      "type": "icon",
                      "size": "sm",
                      "url": "https://scdn.line-apps.com/n/channel_devcenter/img/fx/review_gray_star_28.png"
                    },
                    {
                      "type": "text",
                      "text": "3.1",
                      "size": "sm",
                      "color": "#999999",
                      "margin": "md",
                      "flex": 0
                    }
                  ]
                },
                {
                  "type": "box",
                  "layout": "vertical",
                  "margin": "lg",
                  "spacing": "sm",
                  "contents": [
                    {
                      "type": "box",
                      "layout": "baseline",
                      "spacing": "sm",
                      "contents": [
                        {
                          "type": "text",
                          "text": "Place",
                          "color": "#aaaaaa",
                          "size": "sm",
                          "flex": 1
                        },
                        {
                          "type": "text",
                          "text": "新竹市中華路二段678號",
                          "wrap": true,
                          "color": "#666666",
                          "size": "sm",
                          "flex": 5
                        }
                      ]
                    },
                    {
                      "type": "box",
                      "layout": "baseline",
                      "spacing": "sm",
                      "contents": [
                        {
                          "type": "text",
                          "text": "Time",
                          "color": "#aaaaaa",
                          "size": "sm",
                          "flex": 1
                        },
                        {
                          "type": "text",
                          "text": "24hr",
                          "wrap": true,
                          "color": "#666666",
                          "size": "sm",
                          "flex": 5
                        }
                      ]
                    }
                  ]
                }
              ]
            },
            "footer": {
              "type": "box",
              "layout": "vertical",
              "spacing": "sm",
              "contents": [
                {
                  "type": "button",
                  "style": "link",
                  "height": "sm",
                  "action": {
                    "type": "message",
                    "label": "Contact Number",
                    "text": " 03 527 8999"
                  }
                },
                {
                  "type": "button",
                  "style": "link",
                  "height": "sm",
                  "action": {
                    "type": "uri",
                    "label": "Website",
                    "uri": "https://hsinchu.cgh.org.tw"
                  }
                },
                {
                  "type": "button",
                  "action": {
                    "type": "message",
                    "label": "Operations",
                    "text": "心臟內科"
                  }
                },
                {
                  "type": "button",
                  "action": {
                    "type": "message",
                    "label": "Available Wards",
                    "text": "30 Available Wards"
                  }
                },
                {
                  "type": "spacer",
                  "size": "sm"
                }
              ],
              "flex": 0
            }
          }
    },
    {
      "name":"新竹馬偕兒童醫院",
      "type" : "flex",
        "altText": "no",
        "contents": {
          "type": "bubble",
          "hero": {
            "type": "image",
            "url": "https://i.imgur.com/V0rkobm.png",
            "size": "full",
            "aspectRatio": "20:13",
            "aspectMode": "cover",
            "action": {
              "type": "uri",
              "uri": "http://linecorp.com/"
            }
          },
          "body": {
            "type": "box",
            "layout": "vertical",
            "contents": [
              {
                "type": "text",
                "text": "Nam Men General Hospital",
                "weight": "bold",
                "size": "xl"
              },
              {
                "type": "box",
                "layout": "baseline",
                "margin": "md",
                "contents": [
                  {
                    "type": "icon",
                    "size": "sm",
                    "url": "https://scdn.line-apps.com/n/channel_devcenter/img/fx/review_gold_star_28.png"
                  },
                  {
                    "type": "icon",
                    "size": "sm",
                    "url": "https://scdn.line-apps.com/n/channel_devcenter/img/fx/review_gold_star_28.png"
                  },
                  {
                    "type": "icon",
                    "size": "sm",
                    "url": "https://scdn.line-apps.com/n/channel_devcenter/img/fx/review_gold_star_28.png"
                  },
                  {
                    "type": "icon",
                    "size": "sm",
                    "url": "https://scdn.line-apps.com/n/channel_devcenter/img/fx/review_gray_star_28.png"
                  },
                  {
                    "type": "icon",
                    "size": "sm",
                    "url": "https://scdn.line-apps.com/n/channel_devcenter/img/fx/review_gray_star_28.png"
                  },
                  {
                    "type": "text",
                    "text": "3.1",
                    "size": "sm",
                    "color": "#999999",
                    "margin": "md",
                    "flex": 0
                  }
                ]
              },
              {
                "type": "box",
                "layout": "vertical",
                "margin": "lg",
                "spacing": "sm",
                "contents": [
                  {
                    "type": "box",
                    "layout": "baseline",
                    "spacing": "sm",
                    "contents": [
                      {
                        "type": "text",
                        "text": "Place",
                        "color": "#aaaaaa",
                        "size": "sm",
                        "flex": 1
                      },
                      {
                        "type": "text",
                        "text": "300新竹市東區林森路20號",
                        "wrap": true,
                        "color": "#666666",
                        "size": "sm",
                        "flex": 5
                      }
                    ]
                  },
                  {
                    "type": "box",
                    "layout": "baseline",
                    "spacing": "sm",
                    "contents": [
                      {
                        "type": "text",
                        "text": "Time",
                        "color": "#aaaaaa",
                        "size": "sm",
                        "flex": 1
                      },
                      {
                        "type": "text",
                        "text": "24hr",
                        "wrap": true,
                        "color": "#666666",
                        "size": "sm",
                        "flex": 5
                      }
                    ]
                  }
                ]
              }
            ]
          },
          "footer": {
            "type": "box",
            "layout": "vertical",
            "spacing": "sm",
            "contents": [
              {
                "type": "button",
                "style": "link",
                "height": "sm",
                "action": {
                  "type": "message",
                  "label": "Contact Number",
                  "text": "03-5261122"
                }
              },
              {
                "type": "button",
                "style": "link",
                "height": "sm",
                "action": {
                  "type": "uri",
                  "label": "Website",
                  "uri": "https://www.nanmen.com.tw"
                }
              },
              {
                "type": "button",
                "action": {
                  "type": "message",
                  "label": "Operations",
                  "text": "1.Appendectomy\n2.Vagotomy\n4.Circumcision"
                }
              },
              {
                "type": "button",
                "action": {
                  "type": "message",
                  "label": "Available Wards",
                  "text": "32 Available Wards"
                }
              },
              {
                "type": "spacer",
                "size": "sm"
              }
            ],
            "flex": 0
          }
        }
    },
    {
      "name":"南門綜合醫院",
      "type" : "flex",
        "altText": "no",
        "contents": {
          "type": "bubble",
          "hero": {
            "type": "image",
            "url": "https://i.imgur.com/V0rkobm.png",
            "size": "full",
            "aspectRatio": "20:13",
            "aspectMode": "cover",
            "action": {
              "type": "uri",
              "uri": "http://linecorp.com/"
            }
          },
          "body": {
            "type": "box",
            "layout": "vertical",
            "contents": [
              {
                "type": "text",
                "text": "Nam Men General Hospital",
                "weight": "bold",
                "size": "xl"
              },
              {
                "type": "box",
                "layout": "baseline",
                "margin": "md",
                "contents": [
                  {
                    "type": "icon",
                    "size": "sm",
                    "url": "https://scdn.line-apps.com/n/channel_devcenter/img/fx/review_gold_star_28.png"
                  },
                  {
                    "type": "icon",
                    "size": "sm",
                    "url": "https://scdn.line-apps.com/n/channel_devcenter/img/fx/review_gold_star_28.png"
                  },
                  {
                    "type": "icon",
                    "size": "sm",
                    "url": "https://scdn.line-apps.com/n/channel_devcenter/img/fx/review_gold_star_28.png"
                  },
                  {
                    "type": "icon",
                    "size": "sm",
                    "url": "https://scdn.line-apps.com/n/channel_devcenter/img/fx/review_gray_star_28.png"
                  },
                  {
                    "type": "icon",
                    "size": "sm",
                    "url": "https://scdn.line-apps.com/n/channel_devcenter/img/fx/review_gray_star_28.png"
                  },
                  {
                    "type": "text",
                    "text": "3.1",
                    "size": "sm",
                    "color": "#999999",
                    "margin": "md",
                    "flex": 0
                  }
                ]
              },
              {
                "type": "box",
                "layout": "vertical",
                "margin": "lg",
                "spacing": "sm",
                "contents": [
                  {
                    "type": "box",
                    "layout": "baseline",
                    "spacing": "sm",
                    "contents": [
                      {
                        "type": "text",
                        "text": "Place",
                        "color": "#aaaaaa",
                        "size": "sm",
                        "flex": 1
                      },
                      {
                        "type": "text",
                        "text": "300新竹市東區林森路20號",
                        "wrap": true,
                        "color": "#666666",
                        "size": "sm",
                        "flex": 5
                      }
                    ]
                  },
                  {
                    "type": "box",
                    "layout": "baseline",
                    "spacing": "sm",
                    "contents": [
                      {
                        "type": "text",
                        "text": "Time",
                        "color": "#aaaaaa",
                        "size": "sm",
                        "flex": 1
                      },
                      {
                        "type": "text",
                        "text": "24hr",
                        "wrap": true,
                        "color": "#666666",
                        "size": "sm",
                        "flex": 5
                      }
                    ]
                  }
                ]
              }
            ]
          },
          "footer": {
            "type": "box",
            "layout": "vertical",
            "spacing": "sm",
            "contents": [
              {
                "type": "button",
                "style": "link",
                "height": "sm",
                "action": {
                  "type": "message",
                  "label": "Contact Number",
                  "text": "03-5261122"
                }
              },
              {
                "type": "button",
                "style": "link",
                "height": "sm",
                "action": {
                  "type": "uri",
                  "label": "Website",
                  "uri": "https://www.nanmen.com.tw"
                }
              },
              {
                "type": "button",
                "action": {
                  "type": "message",
                  "label": "Operations",
                  "text": "1.Appendectomy\n2.Vagotomy\n4.Circumcision"
                }
              },
              {
                "type": "button",
                "action": {
                  "type": "message",
                  "label": "Available Wards",
                  "text": "32 Available Wards"
                }
              },
              {
                "type": "spacer",
                "size": "sm"
              }
            ],
            "flex": 0
          }
        }
    },
    {
      "name":"清華大學附設診所",
      "type" : "flex",
        "altText": "no",
        "contents": {
          "type": "bubble",
          "hero": {
            "type": "image",
            "url": "https://i.imgur.com/V0rkobm.png",
            "size": "full",
            "aspectRatio": "20:13",
            "aspectMode": "cover",
            "action": {
              "type": "uri",
              "uri": "http://linecorp.com/"
            }
          },
          "body": {
            "type": "box",
            "layout": "vertical",
            "contents": [
              {
                "type": "text",
                "text": "Nam Men General Hospital",
                "weight": "bold",
                "size": "xl"
              },
              {
                "type": "box",
                "layout": "baseline",
                "margin": "md",
                "contents": [
                  {
                    "type": "icon",
                    "size": "sm",
                    "url": "https://scdn.line-apps.com/n/channel_devcenter/img/fx/review_gold_star_28.png"
                  },
                  {
                    "type": "icon",
                    "size": "sm",
                    "url": "https://scdn.line-apps.com/n/channel_devcenter/img/fx/review_gold_star_28.png"
                  },
                  {
                    "type": "icon",
                    "size": "sm",
                    "url": "https://scdn.line-apps.com/n/channel_devcenter/img/fx/review_gold_star_28.png"
                  },
                  {
                    "type": "icon",
                    "size": "sm",
                    "url": "https://scdn.line-apps.com/n/channel_devcenter/img/fx/review_gray_star_28.png"
                  },
                  {
                    "type": "icon",
                    "size": "sm",
                    "url": "https://scdn.line-apps.com/n/channel_devcenter/img/fx/review_gray_star_28.png"
                  },
                  {
                    "type": "text",
                    "text": "3.1",
                    "size": "sm",
                    "color": "#999999",
                    "margin": "md",
                    "flex": 0
                  }
                ]
              },
              {
                "type": "box",
                "layout": "vertical",
                "margin": "lg",
                "spacing": "sm",
                "contents": [
                  {
                    "type": "box",
                    "layout": "baseline",
                    "spacing": "sm",
                    "contents": [
                      {
                        "type": "text",
                        "text": "Place",
                        "color": "#aaaaaa",
                        "size": "sm",
                        "flex": 1
                      },
                      {
                        "type": "text",
                        "text": "300新竹市東區林森路20號",
                        "wrap": true,
                        "color": "#666666",
                        "size": "sm",
                        "flex": 5
                      }
                    ]
                  },
                  {
                    "type": "box",
                    "layout": "baseline",
                    "spacing": "sm",
                    "contents": [
                      {
                        "type": "text",
                        "text": "Time",
                        "color": "#aaaaaa",
                        "size": "sm",
                        "flex": 1
                      },
                      {
                        "type": "text",
                        "text": "24hr",
                        "wrap": true,
                        "color": "#666666",
                        "size": "sm",
                        "flex": 5
                      }
                    ]
                  }
                ]
              }
            ]
          },
          "footer": {
            "type": "box",
            "layout": "vertical",
            "spacing": "sm",
            "contents": [
              {
                "type": "button",
                "style": "link",
                "height": "sm",
                "action": {
                  "type": "message",
                  "label": "Contact Number",
                  "text": "03-5261122"
                }
              },
              {
                "type": "button",
                "style": "link",
                "height": "sm",
                "action": {
                  "type": "uri",
                  "label": "Website",
                  "uri": "https://www.nanmen.com.tw"
                }
              },
              {
                "type": "button",
                "action": {
                  "type": "message",
                  "label": "Operations",
                  "text": "1.Appendectomy\n2.Vagotomy\n4.Circumcision"
                }
              },
              {
                "type": "button",
                "action": {
                  "type": "message",
                  "label": "Available Wards",
                  "text": "32 Available Wards"
                }
              },
              {
                "type": "spacer",
                "size": "sm"
              }
            ],
            "flex": 0
          }
        }
    },
    {
      "name":"新生醫院",
      "type" : "flex",
        "altText": "no",
        "contents": {
          "type": "bubble",
          "hero": {
            "type": "image",
            "url": "https://i.imgur.com/V0rkobm.png",
            "size": "full",
            "aspectRatio": "20:13",
            "aspectMode": "cover",
            "action": {
              "type": "uri",
              "uri": "http://linecorp.com/"
            }
          },
          "body": {
            "type": "box",
            "layout": "vertical",
            "contents": [
              {
                "type": "text",
                "text": "Nam Men General Hospital",
                "weight": "bold",
                "size": "xl"
              },
              {
                "type": "box",
                "layout": "baseline",
                "margin": "md",
                "contents": [
                  {
                    "type": "icon",
                    "size": "sm",
                    "url": "https://scdn.line-apps.com/n/channel_devcenter/img/fx/review_gold_star_28.png"
                  },
                  {
                    "type": "icon",
                    "size": "sm",
                    "url": "https://scdn.line-apps.com/n/channel_devcenter/img/fx/review_gold_star_28.png"
                  },
                  {
                    "type": "icon",
                    "size": "sm",
                    "url": "https://scdn.line-apps.com/n/channel_devcenter/img/fx/review_gold_star_28.png"
                  },
                  {
                    "type": "icon",
                    "size": "sm",
                    "url": "https://scdn.line-apps.com/n/channel_devcenter/img/fx/review_gray_star_28.png"
                  },
                  {
                    "type": "icon",
                    "size": "sm",
                    "url": "https://scdn.line-apps.com/n/channel_devcenter/img/fx/review_gray_star_28.png"
                  },
                  {
                    "type": "text",
                    "text": "3.1",
                    "size": "sm",
                    "color": "#999999",
                    "margin": "md",
                    "flex": 0
                  }
                ]
              },
              {
                "type": "box",
                "layout": "vertical",
                "margin": "lg",
                "spacing": "sm",
                "contents": [
                  {
                    "type": "box",
                    "layout": "baseline",
                    "spacing": "sm",
                    "contents": [
                      {
                        "type": "text",
                        "text": "Place",
                        "color": "#aaaaaa",
                        "size": "sm",
                        "flex": 1
                      },
                      {
                        "type": "text",
                        "text": "300新竹市東區林森路20號",
                        "wrap": true,
                        "color": "#666666",
                        "size": "sm",
                        "flex": 5
                      }
                    ]
                  },
                  {
                    "type": "box",
                    "layout": "baseline",
                    "spacing": "sm",
                    "contents": [
                      {
                        "type": "text",
                        "text": "Time",
                        "color": "#aaaaaa",
                        "size": "sm",
                        "flex": 1
                      },
                      {
                        "type": "text",
                        "text": "24hr",
                        "wrap": true,
                        "color": "#666666",
                        "size": "sm",
                        "flex": 5
                      }
                    ]
                  }
                ]
              }
            ]
          },
          "footer": {
            "type": "box",
            "layout": "vertical",
            "spacing": "sm",
            "contents": [
              {
                "type": "button",
                "style": "link",
                "height": "sm",
                "action": {
                  "type": "message",
                  "label": "Contact Number",
                  "text": "03-5261122"
                }
              },
              {
                "type": "button",
                "style": "link",
                "height": "sm",
                "action": {
                  "type": "uri",
                  "label": "Website",
                  "uri": "https://www.nanmen.com.tw"
                }
              },
              {
                "type": "button",
                "action": {
                  "type": "message",
                  "label": "Operations",
                  "text": "1.Appendectomy\n2.Vagotomy\n4.Circumcision"
                }
              },
              {
                "type": "button",
                "action": {
                  "type": "message",
                  "label": "Available Wards",
                  "text": "32 Available Wards"
                }
              },
              {
                "type": "spacer",
                "size": "sm"
              }
            ],
            "flex": 0
          }
        }
    }
]