{
    "台大醫院":"613",
    "三軍總醫院":"284",
    "臺北榮民總醫院":"779",
    "國泰綜合醫院":"64",
    "臺北及林口長庚醫院":"157",
    "馬偕紀念醫院":"326",
    "新光吳火獅紀念醫院":"22",
    "臺北市立萬芳醫院":"251",
    "亞東紀念醫院":"478",
    "臺中榮民總醫院":"912",
    "中山醫學大學附設醫院":"399",
    "中國醫藥大學附設醫院":"424",
    "彰化基督教醫療財團法人彰化基督教醫院":"282",
    "國立成功大學醫學院附設醫院":"195",
    "奇美醫院":"188",
    "高雄榮民總醫院":"177",
    "高雄長庚紀念醫院":"995",
    "高雄醫學大學附設中和紀念醫院":"43",
    "佛教慈濟醫療財團法人花蓮慈濟醫院":"228"
}