{
    "type": "template",
    "altText": "This is a buttons template",
    "template": {
        "type": "buttons",
        "title": "Hospital",
        "text": "Please select or enter a hospital name",
        "defaultAction": {
            "type": "uri",
            "label": "View detail",
            "uri": "http://example.com/page/123"
        },
        "actions": [
            {
              "type": "message",
              "label": "馬偕紀念醫院新竹院區",
              "text": "馬偕紀念醫院新竹院區"
            },
            {
              "type": "message",
              "label": "新竹國泰綜合醫院",
              "text": "新竹國泰綜合醫院"
            },
            {
              "type": "message",
              "label": "南門綜合醫院",
              "text": "南門綜合醫院"
            },
            {
              "type": "message",
              "label": "新竹馬偕兒童醫院",
              "text": "新竹馬偕兒童醫院"
            }
            
        ]
    }
  }